module gitlab.com/urydmi/migorm

go 1.17

require (
	gorm.io/driver/mysql v1.3.2
	gorm.io/gorm v1.23.3
)

require (
	github.com/go-sql-driver/mysql v1.6.0 // indirect
	github.com/jinzhu/inflection v1.0.0 // indirect
	github.com/jinzhu/now v1.1.4 // indirect
)
